<svg width="16" height="16" version="1.1" viewBox="0 0 16 16" xmlns="http://www.w3.org/2000/svg" xmlns:osb="http://www.openswatchbook.org/uri/2009/osb">
<g transform="translate(0,-1036.4)">
<path transform="translate(1,1038.4)" d="m8 0a3 3 0 0 0-2.9883 2.7773 3 3 0 0 0-2.0117-0.77734 3 3 0 0 0-3 3 3 3 0 0 0 2 2.8242v2.1758c0 0.554 0.44599 1 1 1h6c0.55401 0 1-0.446 1-1v-1l3 2v-6l-3 2v-1.7695a3 3 0 0 0 1-2.2305 3 3 0 0 0-3-3zm-3 3.5h2v2h-2zm-2.5 2.5h2v2h-2zm3.5 0c0.55228 0 1 0.44772 1 1s-0.44772 1-1 1-1-0.44772-1-1 0.44772-1 1-1zm1.5 0h2v2h-2zm-2.5 2.5h2v2h-2z" fill="#fc9c9c"/>
</g>
</svg>
